****************************************************************************************************************************
Date: 2019-07-03   Time : 17:06:26

Timesheet sent for approval successfully!
****************************************************************************************************************************
Date: 2019-07-03   Time : 18:20:58

Download successful. Report directory :- C:\PROJECTS\TIMESHEET_MIS\DP_TIMESHEET_MIS\wwwroot\report_templates\Danet_Opot_Unicef Ethiopia - 1280_TimesheetReport_2019_03_7__18_20_56.pdf
