****************************************************************************************************************************
Date: 2019-03-18   Time : 17:39:26

Download successful. Report directory :- C:\Users\Danet Opot\Desktop\PROJECTS\dp_timesheets_mis_v2.0\dp_timesheets_mis_v2.0\DP_TIMESHEET_MIS\wwwroot\report_templates\Dannette_Opot_Development Of Sau Cctp Mis_TimesheetReport_2019_18_3__17_39_24.pdf
****************************************************************************************************************************
Date: 2019-03-18   Time : 17:43:44

Error downloading timesheet :- System.IO.DirectoryNotFoundException: Could not find a part of the path 'C:\Users\Danet Opot\Desktop\PROJECTS\dp_timesheets_mis_v2.0\dp_timesheets_mis_v2.0\DP_TIMESHEET_MIS\wwwroot\report_template\Dannette_Opot_Development Of Sau Cctp Mis_TimesheetReport_2019_18_3__17_43_43.pdf'.
   at System.IO.FileStream.ValidateFileHandle(SafeFileHandle fileHandle)
   at System.IO.FileStream.CreateFileOpenHandle(FileMode mode, FileShare share, FileOptions options)
   at System.IO.FileStream..ctor(String path, FileMode mode, FileAccess access, FileShare share, Int32 bufferSize, FileOptions options)
   at System.IO.FileStream..ctor(String path, FileMode mode)
   at DP_TIMESHEET_MIS.Extensions.ExtensionMethods.GenerateTimesheet(Int32 type, String destPath, IHostingEnvironment _hostingEnvironment, IQueryable`1 user, IQueryable`1 header, IQueryable`1 details) in C:\Users\Danet Opot\Desktop\PROJECTS\dp_timesheets_mis_v2.0\dp_timesheets_mis_v2.0\DP_TIMESHEET_MIS\Extensions\Common.cs:line 201
   at DP_TIMESHEET_MIS.Areas.Dashboard.Controllers.TimesheetController.Download(String id, String returnUrl) in C:\Users\Danet Opot\Desktop\PROJECTS\dp_timesheets_mis_v2.0\dp_timesheets_mis_v2.0\DP_TIMESHEET_MIS\Areas\Timesheet\Controllers\TimesheetController.cs:line 738
****************************************************************************************************************************
Date: 2019-03-18   Time : 17:53:39

Downloading ...please wait
****************************************************************************************************************************
Date: 2019-03-18   Time : 17:53:42

Download successful. Report directory :- C:\Users\Danet Opot\Desktop\PROJECTS\dp_timesheets_mis_v2.0\dp_timesheets_mis_v2.0\DP_TIMESHEET_MIS\wwwroot\report_templates\Dannette_Opot_Development Of Sau Cctp Mis_TimesheetReport_2019_18_3__17_53_40.pdf
****************************************************************************************************************************
Date: 2019-03-18   Time : 17:56:37

Downloading ...please wait
****************************************************************************************************************************
Date: 2019-03-18   Time : 17:56:40

Download successful. Report directory :- C:\Users\Danet Opot\Desktop\PROJECTS\dp_timesheets_mis_v2.0\dp_timesheets_mis_v2.0\DP_TIMESHEET_MIS\wwwroot\report_templates\Dannette_Opot_Development Of Sau Cctp Mis_TimesheetReport_2019_18_3__17_56_38.pdf
